{"data":{"Page":{"pageInfo":{"total":295,"currentPage":11,"hasNextPage":true,"lastPage":15,"perPage":21},"media":[{"id":112908,"title":{"romaji":"Tonari no Ie no Anette-san The Animation","english":null,"native":"\u3068\u306a\u308a\u306e\u5bb6\u306e\u30a2\u30cd\u30c3\u30c8\u3055\u3093 THE ANIMATION"},"startDate":{"year":2020,"month":1,"day":31},"episodes":1,"duration":30,"coverImage":{"large":"https:\/\/s4.anilist.co\/file\/anilistcdn\/media\/anime\/cover\/medium\/bx112908-lVszdNQrsn4J.jpg","medium":"https:\/\/s4.anilist.co\/file\/anilistcdn\/media\/anime\/cover\/small\/bx112908-lVszdNQrsn4J.jpg","color":"#e46b5d"},"bannerImage":null,"meanScore":null,"countryOfOrigin":"JP","season":"WINTER"},{"id":112930,"title":{"romaji":"Yes ka No ka Hanbun ka","english":null,"native":"\u30a4\u30a8\u30b9\u304b\u30ce\u30fc\u304b\u534a\u5206\u304b"},"startDate":{"year":null,"month":null,"day":null},"episodes":null,"duration":null,"coverImage":{"large":"https:\/\/s4.anilist.co\/file\/anilistcdn\/media\/anime\/cover\/medium\/bx112930-3ZXitQkcqqfY.jpg","medium":"https:\/\/s4.anilist.co\/file\/anilistcdn\/media\/anime\/cover\/small\/bx112930-3ZXitQkcqqfY.jpg","color":"#e4ae5d"},"bannerImage":null,"meanScore":null,"countryOfOrigin":"JP","season":null},{"id":112932,"title":{"romaji":"Onmyou Hyakki Monogatari","english":null,"native":"\u9670\u967d\u767e\u9b3c\u7269\u8a9e"},"startDate":{"year":2020,"month":null,"day":null},"episodes":null,"duration":null,"coverImage":{"large":"https:\/\/s4.anilist.co\/file\/anilistcdn\/media\/anime\/cover\/medium\/b112932-cLp5VIXLL1Pa.jpg","medium":"https:\/\/s4.anilist.co\/file\/anilistcdn\/media\/anime\/cover\/small\/b112932-cLp5VIXLL1Pa.jpg","color":"#5086d6"},"bannerImage":null,"meanScore":null,"countryOfOrigin":"JP","season":null},{"id":112936,"title":{"romaji":"Enjo Kouhai","english":null,"native":"\u25cb\u25cb\u4ea4\u914d"},"startDate":{"year":2020,"month":1,"day":31},"episodes":null,"duration":20,"coverImage":{"large":"https:\/\/s4.anilist.co\/file\/anilistcdn\/media\/anime\/cover\/medium\/bx112936-MOPqLdKu7dgJ.jpg","medium":"https:\/\/s4.anilist.co\/file\/anilistcdn\/media\/anime\/cover\/small\/bx112936-MOPqLdKu7dgJ.jpg","color":"#c98650"},"bannerImage":null,"meanScore":null,"countryOfOrigin":"JP","season":"WINTER"},{"id":113023,"title":{"romaji":"Soushuuhen Shoujo\u2606Kageki Revue Starlight","english":null,"native":"\u7dcf\u96c6\u7de8 \u5c11\u5973\u2606\u6b4c\u5287 \u30ec\u30f4\u30e5\u30fc\u30b9\u30bf\u30a1\u30e9\u30a4\u30c8"},"startDate":{"year":2020,"month":null,"day":null},"episodes":null,"duration":null,"coverImage":{"large":"https:\/\/s4.anilist.co\/file\/anilistcdn\/media\/anime\/cover\/medium\/bx113023-1kjfF6DAOcqY.png","medium":"https:\/\/s4.anilist.co\/file\/anilistcdn\/media\/anime\/cover\/small\/bx113023-1kjfF6DAOcqY.png","color":"#e45d28"},"bannerImage":null,"meanScore":null,"countryOfOrigin":"JP","season":"SUMMER"},{"id":113024,"title":{"romaji":"Shoujo\u2606Kageki Revue Starlight Movie","english":null,"native":"\u5287\u5834\u7248 \u5c11\u5973\u2606\u6b4c\u5287 \u30ec\u30f4\u30e5\u30fc\u30b9\u30bf\u30a1\u30e9\u30a4\u30c8"},"startDate":{"year":null,"month":null,"day":null},"episodes":null,"duration":null,"coverImage":{"large":"https:\/\/s4.anilist.co\/file\/anilistcdn\/media\/anime\/cover\/medium\/bx113024-c9FL7Z7Nxe3W.png","medium":"https:\/\/s4.anilist.co\/file\/anilistcdn\/media\/anime\/cover\/small\/bx113024-c9FL7Z7Nxe3W.png","color":"#e4785d"},"bannerImage":null,"meanScore":null,"countryOfOrigin":"JP","season":null},{"id":113051,"title":{"romaji":"ARGONAVIS from BanG Dream!","english":null,"native":"\u30a2\u30eb\u30b4\u30ca\u30d3\u30b9 from BanG Dream!"},"startDate":{"year":2020,"month":null,"day":null},"episodes":null,"duration":null,"coverImage":{"large":"https:\/\/s4.anilist.co\/file\/anilistcdn\/media\/anime\/cover\/medium\/bx113051-R2V4aqfv0pau.png","medium":"https:\/\/s4.anilist.co\/file\/anilistcdn\/media\/anime\/cover\/small\/bx113051-R2V4aqfv0pau.png","color":"#5da1f1"},"bannerImage":"https:\/\/s4.anilist.co\/file\/anilistcdn\/media\/anime\/banner\/113051-O0OIEfTcXrQY.jpg","meanScore":null,"countryOfOrigin":"JP","season":"SPRING"},{"id":113108,"title":{"romaji":"Kingdom 3","english":null,"native":"\u30ad\u30f3\u30b0\u30c0\u30e0 3"},"startDate":{"year":2020,"month":4,"day":null},"episodes":null,"duration":null,"coverImage":{"large":"https:\/\/s4.anilist.co\/file\/anilistcdn\/media\/anime\/cover\/medium\/b113108-uzpALDePlHxd.jpg","medium":"https:\/\/s4.anilist.co\/file\/anilistcdn\/media\/anime\/cover\/small\/b113108-uzpALDePlHxd.jpg","color":"#a1bbe4"},"bannerImage":null,"meanScore":null,"countryOfOrigin":"JP","season":"SPRING"},{"id":113187,"title":{"romaji":"Null Peta OVA","english":"Null & Peta OVA","native":"\u306c\u308b\u307a\u305fOVA"},"startDate":{"year":2020,"month":1,"day":31},"episodes":1,"duration":5,"coverImage":{"large":"https:\/\/s4.anilist.co\/file\/anilistcdn\/media\/anime\/cover\/medium\/bx113187-mpa6ZxnnBsj8.jpg","medium":"https:\/\/s4.anilist.co\/file\/anilistcdn\/media\/anime\/cover\/small\/bx113187-mpa6ZxnnBsj8.jpg","color":"#e45d78"},"bannerImage":null,"meanScore":null,"countryOfOrigin":"JP","season":"WINTER"},{"id":113220,"title":{"romaji":"Shikijou Kyoudan","english":null,"native":"\u8272\u60c5\u6559\u56e3"},"startDate":{"year":2020,"month":3,"day":6},"episodes":2,"duration":20,"coverImage":{"large":"https:\/\/s4.anilist.co\/file\/anilistcdn\/media\/anime\/cover\/medium\/bx113220-pXKJKNwT1sO1.jpg","medium":"https:\/\/s4.anilist.co\/file\/anilistcdn\/media\/anime\/cover\/small\/bx113220-pXKJKNwT1sO1.jpg","color":"#e4aea1"},"bannerImage":null,"meanScore":null,"countryOfOrigin":"JP","season":"WINTER"},{"id":113231,"title":{"romaji":"2.43: Seiin Koukou Danshi Volley-bu","english":null,"native":"2.43 \u6e05\u9670\u9ad8\u6821\u7537\u5b50\u30d0\u30ec\u30fc\u90e8"},"startDate":{"year":null,"month":null,"day":null},"episodes":null,"duration":null,"coverImage":{"large":"https:\/\/s4.anilist.co\/file\/anilistcdn\/media\/anime\/cover\/medium\/bx113231-Bh9FJfexv7Kg.png","medium":"https:\/\/s4.anilist.co\/file\/anilistcdn\/media\/anime\/cover\/small\/bx113231-Bh9FJfexv7Kg.png","color":"#f1d6ae"},"bannerImage":null,"meanScore":null,"countryOfOrigin":"JP","season":null},{"id":113254,"title":{"romaji":"Ryouma! Shinsei Tennis no Ouji-sama","english":null,"native":"\u30ea\u30e7\u30fc\u30de! \u65b0\u751f\u5287\u5834\u7248\u30c6\u30cb\u30b9\u306e\u738b\u5b50\u69d8"},"startDate":{"year":2021,"month":null,"day":null},"episodes":1,"duration":null,"coverImage":{"large":"https:\/\/s4.anilist.co\/file\/anilistcdn\/media\/anime\/cover\/medium\/b113254-bobAElbo0mjV.jpg","medium":"https:\/\/s4.anilist.co\/file\/anilistcdn\/media\/anime\/cover\/small\/b113254-bobAElbo0mjV.jpg","color":"#f1e4c9"},"bannerImage":null,"meanScore":null,"countryOfOrigin":"JP","season":null},{"id":113286,"title":{"romaji":"Monster Musume no Oisha-san","english":null,"native":"\u30e2\u30f3\u30b9\u30bf\u30fc\u5a18\u306e\u304a\u533b\u8005\u3055\u3093"},"startDate":{"year":2020,"month":null,"day":null},"episodes":null,"duration":null,"coverImage":{"large":"https:\/\/s4.anilist.co\/file\/anilistcdn\/media\/anime\/cover\/medium\/bx113286-UEMbVBdDUmI0.png","medium":"https:\/\/s4.anilist.co\/file\/anilistcdn\/media\/anime\/cover\/small\/bx113286-UEMbVBdDUmI0.png","color":"#d61a35"},"bannerImage":null,"meanScore":null,"countryOfOrigin":"JP","season":null},{"id":113311,"title":{"romaji":"Kakushigoto","english":null,"native":"\u304b\u304f\u3057\u3054\u3068"},"startDate":{"year":2020,"month":4,"day":null},"episodes":null,"duration":null,"coverImage":{"large":"https:\/\/s4.anilist.co\/file\/anilistcdn\/media\/anime\/cover\/medium\/bx113311-nFb5klqN10kg.png","medium":"https:\/\/s4.anilist.co\/file\/anilistcdn\/media\/anime\/cover\/small\/bx113311-nFb5klqN10kg.png","color":"#50aee4"},"bannerImage":"https:\/\/s4.anilist.co\/file\/anilistcdn\/media\/anime\/banner\/113311-tNQGcWX8OCYg.jpg","meanScore":null,"countryOfOrigin":"JP","season":"SPRING"},{"id":113345,"title":{"romaji":"DEEMO THE MOVIE","english":null,"native":"DEEMO THE MOVIE"},"startDate":{"year":2020,"month":null,"day":null},"episodes":1,"duration":null,"coverImage":{"large":"https:\/\/s4.anilist.co\/file\/anilistcdn\/media\/anime\/cover\/medium\/bx113345-JioKPP36RBTq.png","medium":"https:\/\/s4.anilist.co\/file\/anilistcdn\/media\/anime\/cover\/small\/bx113345-JioKPP36RBTq.png","color":"#6b501a"},"bannerImage":null,"meanScore":null,"countryOfOrigin":"JP","season":null},{"id":113359,"title":{"romaji":"Megalo Box 2","english":null,"native":"\u30e1\u30ac\u30ed\u30dc\u30af\u30b92"},"startDate":{"year":null,"month":null,"day":null},"episodes":null,"duration":null,"coverImage":{"large":"https:\/\/s4.anilist.co\/file\/anilistcdn\/media\/anime\/cover\/medium\/bx113359-s1zVSWjC0Ewd.jpg","medium":"https:\/\/s4.anilist.co\/file\/anilistcdn\/media\/anime\/cover\/small\/bx113359-s1zVSWjC0Ewd.jpg","color":"#932843"},"bannerImage":null,"meanScore":null,"countryOfOrigin":"JP","season":null},{"id":113363,"title":{"romaji":"Kaiju Decode","english":null,"native":"KAIJU DECODE"},"startDate":{"year":null,"month":null,"day":null},"episodes":null,"duration":null,"coverImage":{"large":"https:\/\/s4.anilist.co\/file\/anilistcdn\/media\/anime\/cover\/medium\/bx113363-LjhLGYgUaoqL.jpg","medium":"https:\/\/s4.anilist.co\/file\/anilistcdn\/media\/anime\/cover\/small\/bx113363-LjhLGYgUaoqL.jpg","color":"#bb43ff"},"bannerImage":null,"meanScore":null,"countryOfOrigin":"JP","season":null},{"id":113415,"title":{"romaji":"Jujutsu Kaisen","english":null,"native":"\u546a\u8853\u5efb\u6226"},"startDate":{"year":2020,"month":null,"day":null},"episodes":null,"duration":null,"coverImage":{"large":"https:\/\/s4.anilist.co\/file\/anilistcdn\/media\/anime\/cover\/medium\/bx113415-MjltTvHFGotF.png","medium":"https:\/\/s4.anilist.co\/file\/anilistcdn\/media\/anime\/cover\/small\/bx113415-MjltTvHFGotF.png","color":"#93e486"},"bannerImage":null,"meanScore":null,"countryOfOrigin":"JP","season":null},{"id":113416,"title":{"romaji":"Dounika Naru Hibi","english":null,"native":"\u3069\u3046\u306b\u304b\u306a\u308b\u65e5\u3005"},"startDate":{"year":2020,"month":null,"day":null},"episodes":1,"duration":null,"coverImage":{"large":"https:\/\/s4.anilist.co\/file\/anilistcdn\/media\/anime\/cover\/medium\/bx113416-HZk8V4zxJa4o.jpg","medium":"https:\/\/s4.anilist.co\/file\/anilistcdn\/media\/anime\/cover\/small\/bx113416-HZk8V4zxJa4o.jpg","color":"#f1ae50"},"bannerImage":null,"meanScore":null,"countryOfOrigin":"JP","season":null},{"id":113418,"title":{"romaji":"Super Cub","english":null,"native":"\u30b9\u30fc\u30d1\u30fc\u30ab\u30d6"},"startDate":{"year":null,"month":null,"day":null},"episodes":null,"duration":null,"coverImage":{"large":"https:\/\/s4.anilist.co\/file\/anilistcdn\/media\/anime\/cover\/medium\/bx113418-Lk3cw02IGzf9.jpg","medium":"https:\/\/s4.anilist.co\/file\/anilistcdn\/media\/anime\/cover\/small\/bx113418-Lk3cw02IGzf9.jpg","color":"#e45d93"},"bannerImage":null,"meanScore":null,"countryOfOrigin":"JP","season":null},{"id":113425,"title":{"romaji":"Kaifuku Jutsushi no Yarinaoshi","english":null,"native":"\u56de\u5fa9\u8853\u58eb\u306e\u3084\u308a\u76f4\u3057"},"startDate":{"year":null,"month":null,"day":null},"episodes":null,"duration":null,"coverImage":{"large":"https:\/\/s4.anilist.co\/file\/anilistcdn\/media\/anime\/cover\/medium\/bx113425-fIhlcgB6BxOJ.jpg","medium":"https:\/\/s4.anilist.co\/file\/anilistcdn\/media\/anime\/cover\/small\/bx113425-fIhlcgB6BxOJ.jpg","color":"#aef15d"},"bannerImage":null,"meanScore":null,"countryOfOrigin":"JP","season":null}]}}}
